…
```r
print(out)
```

```
 - command: ~/apps/finemap/finemap --sss --log --n-causal-max 3 --in-files region.master 
 - see log output in `log`
 - tables of results: `config`, `snp`, `ncausal`
 - config:
# A tibble: 8,410 x 4
   rank config         config_prob config_log10bf
  <int> <chr>                <dbl>          <dbl>
1     1 rs15,rs47           0.607            42.7
2     2 rs15,rs42,rs47      0.0326           43.1
3     3 rs15,rs34,rs47      0.0222           42.9
# ... with 8,407 more rows
```
…
```r
print(out_caviar)
```

```
 - command: ~/apps/caviar/CAVIAR -c 3 -z region.z -l region.ld -o log 
 - tables of results: `snp`
 - snp:
# A tibble: 50 x 4
   rank snp   snp_prob_set snp_prob
  <int> <chr>        <dbl>    <dbl>
1     1 rs15        0.439    1.00  
2     2 rs47        0.439    1.00  
3     3 rs42        0.0120   0.0274
# ... with 47 more rows
…
