…
```r
print(out_caviar)
```

```
 - command: ~/apps/caviar/CAVIAR -c 3 -z region.z -l region.ld -o log 
 - tables of results: `snp`
 - snp:
# A tibble: 50 x 4
   rank snp   snp_prob_set snp_prob
  <int> <chr>        <dbl>    <dbl>
1     1 rs15        0.439    1.00  
2     2 rs47        0.439    1.00  
3     3 rs42        0.0120   0.0274
# ... with 47 more rows
…
