…
```r
print(out_paintor)
```

```
 - command: ~/apps/paintor/PAINTOR -input region.master -Zhead zscore -LDname ld -annotations dummy_ones -enumerate 3 -num_samples 5363 
 - tables of results: `snp`
 - snp:
# A tibble: 50 x 4
   rank   snp     zscore snp_prob
  <int> <chr>      <dbl>    <dbl>
1     1  rs15 10.9151878 1.000000
2     2  rs47  8.7995877 1.000000
3     3  rs25 -0.1326266 0.020042
# ... with 47 more rows
…
