Fine-mapping analysis pipeline by finemapr
…
print(out_finemap)
#>  - command: ~/apps/finemap/finemap --sss --log --n-causal-max 3 --in-files region.master 
#>  - see log output in `log`
#>  - tables of results: `config`, `snp`, `ncausal`
#>  - config:
#> # A tibble: 9,007 x 4
#>    rank config         config_prob config_log10bf
#>   <int> <chr>                <dbl>          <dbl>
#> 1     1 rs15,rs47           0.607            42.7
#> 2     2 rs15,rs42,rs47      0.0326           43.1
#> 3     3 rs15,rs34,rs47      0.0222           42.9
#> # ... with 9,004 more rows
…
options(finemapr_caviar = "~/apps/caviar/CAVIAR")

out_caviar <- run_caviar(z1, ld1, args = "-c 3")
#> Parsed with column specification:
#> cols(
#>   SNP_ID = col_character(),
#>   Prob_in_pCausalSet = col_double(),
#>   Causal_Post._Prob. = col_double()
#> )

print(out_caviar)
#>  - command: ~/apps/caviar/CAVIAR -c 3 -z region.z -l region.ld -o log 
#>  - tables of results: `snp`
#>  - snp:
#> # A tibble: 50 x 4
#>    rank snp   snp_prob_set snp_prob
#>   <int> <chr>        <dbl>    <dbl>
#> 1     1 rs15        0.439    1.00  
#> 2     2 rs47        0.439    1.00  
#> 3     3 rs42        0.0120   0.0274
#> # ... with 47 more rows
…
options(finemapr_paintor = "~/apps/paintor/PAINTOR")

out_paintor <- run_paintor(z1, ld1, n1, args = "-enumerate 3")
#> Parsed with column specification:
#> cols(
#>   snp = col_character(),
#>   zscore = col_double(),
#>   Posterior_Prob = col_double()
#> )

print(out_paintor)
#>  - command: ~/apps/paintor/PAINTOR -input region.master -Zhead zscore -LDname ld -annotations dummy_ones -enumerate 3 -num_samples 5363 
#>  - tables of results: `snp`
#>  - snp:
#> # A tibble: 50 x 4
#>    rank snp    zscore snp_prob
#>   <int> <chr>   <dbl>    <dbl>
#> 1     1 rs15   10.9     1.00  
#> 2     2 rs47    8.80    1.00  
#> 3     3 rs25  - 0.133   0.0200
#> # ... with 47 more rows
…
